class02
…
# 날에 따른 변화
bikes_daily <- 
  bikes |> 
  group_by(date) |> 
  summarise(n = sum(bikers),
            temp_h = max(temp),
            temp_l = min(temp),
            temp_m = mean(temp))
bikes_daily

# A tibble: 365 × 5
   date           n temp_h temp_l temp_m
   <date>     <dbl>  <dbl>  <dbl>  <dbl>
 1 2011-01-01   985   0.46   0.2   0.344
 2 2011-01-02   801   0.46   0.22  0.363
 3 2011-01-03  1349   0.26   0.14  0.196
 4 2011-01-04  1562   0.3    0.12  0.2  
 5 2011-01-05  1600   0.3    0.16  0.227
 6 2011-01-06  1606   0.28   0.14  0.204
 7 2011-01-07  1510   0.22   0.16  0.197
 8 2011-01-08   959   0.2    0.1   0.165
 9 2011-01-09   822   0.22   0.08  0.138
10 2011-01-10  1321   0.2    0.1   0.151
# … with 355 more rows

bikes_daily <-
  bikes_daily |> 
  mutate(wday = wday(date, label = TRUE),
         month = month(date, label = TRUE))
bikes_daily

# A tibble: 365 × 7
   date           n temp_h temp_l temp_m wday  month
   <date>     <dbl>  <dbl>  <dbl>  <dbl> <ord> <ord>
 1 2011-01-01   985   0.46   0.2   0.344 Sat   Jan  
 2 2011-01-02   801   0.46   0.22  0.363 Sun   Jan  
 3 2011-01-03  1349   0.26   0.14  0.196 Mon   Jan  
 4 2011-01-04  1562   0.3    0.12  0.2   Tue   Jan  
 5 2011-01-05  1600   0.3    0.16  0.227 Wed   Jan  
 6 2011-01-06  1606   0.28   0.14  0.204 Thu   Jan  
 7 2011-01-07  1510   0.22   0.16  0.197 Fri   Jan  
 8 2011-01-08   959   0.2    0.1   0.165 Sat   Jan  
 9 2011-01-09   822   0.22   0.08  0.138 Sun   Jan  
10 2011-01-10  1321   0.2    0.1   0.151 Mon   Jan  
# … with 355 more rows
…
